[
    {
        "title": "Startseite",
        "name": "sidebar.home",
        "is_active": true,
        "class_name": "",
        "is_icon_class": true,
        "icon": "ri-home-4-line",
        "link": {
            "name": "dashboard.home-1"
        }
    },
    {
        "title": "Posten & Trades",
        "name": "sidebar.posts",
        "is_active": false,
        "class_name": "",
        "is_icon_class": true,
        "icon": "ri-question-answer-line",
        "link": {
            "name": "app.posts"
        }
    },
    {
        "title": "Empfehlungen & Belohnungen",
        "name": "sidebar.referrals",
        "is_active": false,
        "class_name": "",
        "is_icon_class": true,
        "icon": "ri-terminal-window-line",
        "link": {
            "name": "app.referrals"
        }
    },
    {
        "title": "Abonnement-Pakete",
        "name": "sidebar.packages",
        "is_active": false,
        "class_name": "",
        "is_icon_class": true,
        "icon": "ri-profile-line",
        "link": {
            "name": "app.packages"
        }
    }
]
